CPTCode,Description,Rate,Category
70010,Contrast x-ray of brain,62.72,X-Ray
70015,Contrast x-ray of brain,96.96,X-Ray
70030,X-ray eye for foreign body,22.35,X-Ray
70100,X-ray exam of jaw <4views,27.03,X-Ray
70110,X-ray exam of jaw 4/> views,28.12,X-Ray
70120,X-ray exam of mastoids,26.67,X-Ray
70130,X-ray exam of mastoids,41.45,X-Ray
70134,X-ray exam of middle ear,34.24,X-Ray
70140,X-ray exam of facial bones,21.63,X-Ray
70150,X-ray exam of facial bones,32.08,X-Ray
70160,X-ray exam of nasal bones,27.40,X-Ray
70170,X-ray exam of tear duct,0.00,X-Ray
70190,X-ray exam of eye sockets,27.76,X-Ray
70200,X-ray exam of eye sockets,32.08,X-Ray
70210,X-ray exam of sinuses,24.51,X-Ray
70220,X-ray exam of sinuses,28.12,X-Ray
70240,X-ray exam pituitary saddle,23.43,X-Ray
70250,X-ray exam of skull,26.67,X-Ray
70260,X-ray exam of skull,31.72,X-Ray
70300,X-ray exam of teeth,8.29,X-Ray
70310,X-ray exam of teeth,31.72,X-Ray
70320,Full mouth x-ray of teeth,42.17,X-Ray
70328,X-ray exam of jaw joint,23.43,X-Ray
70330,X-ray exam of jaw joints,37.49,X-Ray
70332,X-ray exam of jaw joint,50.46,X-Ray
70336,Magnetic image jaw joint,231.79,MRI
70350,X-ray head for orthodontia,9.73,X-Ray
70355,Panoramic x-ray of jaws,11.17,X-Ray
70360,X-ray exam of neck,23.43,X-Ray
70370,Throat x-ray & fluoroscopy,62.86,Fluoroscopy
70371,Speech evaluation complex,57.67,
70380,X-ray exam of salivary gland,27.40,
70390,X-ray exam of salivary duct,87.23,
70450,Ct head/brain w/o dye,76.06,
70460,Ct head/brain w/dye,109.94,
70470,Ct head/brain w/o & w/dye,131.93,
70480,Ct orbit/ear/fossa w/o dye,113.80,
70481,Ct orbit/ear/fossa w/dye,203.21,
70482,Ct orbit/ear/fossa w/o&w/dye,203.21,
70486,Ct maxillofacial w/o dye,98.77,
70487,Ct maxillofacial w/dye,114.27,
70488,Ct maxillofacial w/o & w/dye,144.55,
70490,Ct soft tissue neck w/o dye,103.09,
70491,Ct soft tissue neck w/dye,137.34,
70492,Ct sft tsue nck w/o & w/dye,168.34,
70496,Ct angiography head,203.21,
70498,Ct angiography neck,203.21,
70540,Mri orbit/face/neck w/o dye,204.02,
70542,Mri orbit/face/neck w/dye,241.51,
70543,Mri orbt/fac/nck w/o &w/dye,298.46,
70544,Mr angiography head w/o dye,220.96,
70545,Mr angiography head w/dye,218.80,
70546,Mr angiograph head w/o&w/dye,338.84,
70547,Mr angiography neck w/o dye,222.05,
70548,Mr angiography neck w/dye,235.02,
70549,Mr angiograph neck w/o&w/dye,341.00,
70551,Mri brain stem w/o dye,157.16,
70552,Mri brain stem w/dye,232.50,
70553,Mri brain stem w/o & w/dye,264.22,
70554,Fmri brain by tech,345.32,
70555,Fmri brain by phys/psych,128.69,
70557,Mri brain w/o dye,149.23,
70558,Mri brain w/dye,0.00,
70559,Mri brain w/o & w/dye,169.06,
71045,X-ray exam chest 1 view,11.53,
71046,X-ray exam chest 2 views,22.35,
71047,X-ray exam chest 3 views,27.40,
71048,X-ray exam chest 4+ views,28.12,
71100,X-ray exam ribs uni 2 views,24.87,
71101,X-ray exam unilat ribs/chest,27.40,
71110,X-ray exam ribs bil 3 views,28.12,
71111,X-ray exam ribs/chest4/> vws,34.24,
71120,X-ray exam breastbone 2/>vws,22.35,
71130,X-ray strenoclavic jt 3/>vws,28.12,
71250,Ct thorax w/o dye,103.81,
71260,Ct thorax w/dye,137.70,
71270,Ct thorax w/o & w/dye,168.34,
71275,Ct angiography chest,203.21,
71550,Mri chest w/o dye,231.79,
71551,Mri chest w/dye,373.08,
71552,Mri chest w/o & w/dye,388.70,
71555,Mri angio chest w or w/o dye,311.08,
72020,X-ray exam of spine 1 view,16.58,
72040,X-ray exam neck spine 2-3 vw,25.95,
72050,X-ray exam neck spine 4/5vws,36.41,
72052,X-ray exam neck spine 6/>vws,43.98,
72070,X-ray exam thorac spine 2vws,24.15,
72072,X-ray exam thorac spine 3vws,27.03,
72074,X-ray exam thorac spine4/>vw,30.28,
72080,X-ray exam thoracolmb 2/> vw,23.07,
72081,X-ray exam entire spi 1 vw,28.12,
72082,X-ray exam entire spi 2/3 vw,51.19,
72083,X-ray exam entire spi 4/5 vw,60.92,
72084,X-ray exam entire spi 6/> vw,71.37,
72100,X-ray exam l-s spine 2/3 vws,26.31,
72110,X-ray exam l-2 spine 4/>vws,37.13,
72114,X-ray exam l-s spine bending,42.90,
72120,X-ray bend only l-s spine,33.52,
72125,Ct neck spine w/o dye,113.80,
72126,Ct neck spine w/dye,171.58,
72127,Ct neck spine w/o & w/dye,203.21,
72128,Ct chest spine w/o dye,113.80,
72129,Ct chest spine w/dye,173.02,
72130,Ct chest spine w/o & w/dye,203.21,
72131,Ct lumbar spine w/o dye,113.80,
72132,Ct lumbar spine w/dye,171.58,
72133,Ct lumbar spine w/o & w/dye,203.21,
72141,Mri neck spine w/o dye,151.03,
72142,Mri neck spine w/dye,238.27,
72146,Mri chest spine w/o dye,151.03,
72147,Mri chest spine w/dye,236.82,
72148,Mri lumbar spine w/o dye,151.03,
72149,Mri lumbar spine w/dye,234.30,
72156,Mri neck spine w/o & w/dye,266.74,
72157,Mri chest spine w/o & w/dye,267.82,
72158,Mri lumbar spine w/o & w/dye,266.02,
72159,Mr angio spine w/o&w/dye,325.50,
72170,X-ray exam of pelvis,25.59,
72190,X-ray exam of pelvis,30.64,
72191,Ct angiograph pelv w/o&w/dye,203.21,
72192,Ct pelvis w/o dye,94.08,
72193,Ct pelvis w/dye,181.31,
72194,Ct pelvis w/o & w/dye,203.21,
72195,Mri pelvis w/o dye,203.30,
72196,Mri pelvis w/dye,236.46,
72197,Mri pelvis w/o & w/dye,297.74,
72198,Mr angio pelvis w/o & w/dye,313.60,
72200,X-ray exam si joints,23.07,
72202,X-ray exam si joints 3/> vws,26.31,
72220,X-ray exam sacrum tailbone,23.07,
72240,Myelography neck spine,60.20,
72255,Myelography thoracic spine,58.40,
72265,Myelography l-s spine,57.67,
72270,Myelogphy 2/> spine regions,68.13,
72275,Epidurography,84.35,
72285,Discography cerv/thor spine,59.84,
72295,X-ray of lower spine disk,59.48,
73000,X-ray exam of collar bone,22.35,
73010,X-ray exam of shoulder blade,24.51,
73020,X-ray exam of shoulder,16.94,
73030,X-ray exam of shoulder,22.35,
73040,Contrast x-ray of shoulder,85.43,
73050,X-ray exam of shoulders,28.48,
73060,X-ray exam of humerus,23.07,
73070,X-ray exam of elbow,19.47,
73080,X-ray exam of elbow,21.63,
73085,Contrast x-ray of elbow,78.94,
73090,X-ray exam of forearm,20.91,
73092,X-ray exam of arm infant,22.35,
73100,X-ray exam of wrist,23.79,
73110,X-ray exam of wrist,28.84,
73115,Contrast x-ray of wrist,91.92,
73120,X-ray exam of hand,20.55,
73130,X-ray exam of hand,25.23,
73140,X-ray exam of finger(s),27.76,
73200,Ct upper extremity w/o dye,113.80,
73201,Ct upper extremity w/dye,169.78,
73202,Ct uppr extremity w/o&w/dye,203.21,
73206,Ct angio upr extrm w/o&w/dye,203.21,
73218,Mri upper extremity w/o dye,231.79,
73219,Mri upper extremity w/dye,322.97,
73220,Mri uppr extremity w/o&w/dye,388.70,
73221,Mri joint upr extrem w/o dye,169.78,
73222,Mri joint upr extrem w/dye,298.82,
73223,Mri joint upr extr w/o&w/dye,362.63,
73225,Mr angio upr extr w/o&w/dye,313.24,
73501,X-ray exam hip uni 1 view,23.07,
73502,X-ray exam hip uni 2-3 views,33.52,
73503,X-ray exam hip uni 4/> views,41.45,
73521,X-ray exam hips bi 2 views,28.84,
73522,X-ray exam hips bi 3-4 views,36.77,
73523,X-ray exam hips bi 5/> views,44.34,
73525,Contrast x-ray of hip,85.79,
73551,X-ray exam of femur 1,21.63,
73552,X-ray exam of femur 2/>,25.59,
73560,X-ray exam of knee 1 or 2,25.23,
73562,X-ray exam of knee 3,29.20,
73564,X-ray exam knee 4 or more,32.08,
73565,X-ray exam of knees,30.28,
73580,Contrast x-ray of knee joint,103.45,
73590,X-ray exam of lower leg,23.07,
73592,X-ray exam of leg infant,22.35,
73600,X-ray exam of ankle,23.79,
73610,X-ray exam of ankle,25.95,
73615,Contrast x-ray of ankle,90.48,
73620,X-ray exam of foot,20.19,
73630,X-ray exam of foot,24.15,
73650,X-ray exam of heel,19.10,
73660,X-ray exam of toe(s),24.15,
73700,Ct lower extremity w/o dye,113.80,
73701,Ct lower extremity w/dye,172.66,
73702,Ct lwr extremity w/o&w/dye,203.21,
73706,Ct angio lwr extr w/o&w/dye,203.21,
73718,Mri lower extremity w/o dye,200.42,
73719,Mri lower extremity w/dye,236.46,
73720,Mri lwr extremity w/o&w/dye,299.18,
73721,Mri jnt of lwr extre w/o dye,170.14,
73722,Mri joint of lwr extr w/dye,300.63,
73723,Mri joint lwr extr w/o&w/dye,363.35,
73725,Mr ang lwr ext w or w/o dye,313.60,
74018,X-ray exam abdomen 1 view,20.55,
74019,X-ray exam abdomen 2 views,24.51,
74021,X-ray exam abdomen 3+ views,28.12,
74022,X-ray exam series abdomen,48.66,
74150,Ct abdomen w/o dye,60.20,
74160,Ct abdomen w/dye,180.23,
74170,Ct abdomen w/o & w/dye,203.21,
74174,Ct angio abd&pelv w/o&w/dye,296.93,
74175,Ct angio abdom w/o & w/dye,112.10,
74176,Ct abd & pelvis w/o contrast,116.43,
74177,Ct abd & pelv w/contrast,234.66,
74178,Ct abd & pelv 1/> regns,266.74,
74181,Mri abdomen w/o dye,103.45,
74182,Mri abdomen w/dye,280.44,
74183,Mri abdomen w/o & w/dye,298.46,
74185,Mri angio abdom w orw/o dye,315.04,
74190,X-ray exam of peritoneum,0.00,
74210,Contrst x-ray exam of throat,61.64,
74220,Contrast x-ray esophagus,65.60,
74230,Cine/vid x-ray throat/esoph,103.81,
74235,Remove esophagus obstruction,64.16,
74240,X-ray upper gi delay w/o kub,92.28,
74241,X-ray upper gi delay w/kub,96.60,
74245,X-ray upper gi&small intest,145.27,
74246,Contrst x-ray uppr gi tract,105.62,
74247,Contrst x-ray uppr gi tract,122.92,
74249,Contrst x-ray uppr gi tract,159.32,
74250,X-ray exam of small bowel,92.64,
74251,X-ray exam of small bowel,231.79,
74260,X-ray exam of small bowel,113.80,
74261,Ct colonography dx,123.28,
74262,Ct colonography dx w/dye,203.21,
74263,Ct colonography screening,667.58,
74270,Contrast x-ray exam of colon,131.21,
74280,Contrast x-ray exam of colon,183.84,
74283,Contrast x-ray exam of colon,137.34,
74290,Contrast x-ray gallbladder,62.72,
74300,X-ray bile ducts/pancreas,0.00,
74301,X-rays at surgery add-on,0.00,
74328,X-ray bile duct endoscopy,0.00,
74329,X-ray for pancreas endoscopy,0.00,
74330,X-ray bile/panc endoscopy,0.00,
74340,X-ray guide for gi tube,0.00,
74355,X-ray guide intestinal tube,0.00,
74360,X-ray guide gi dilation,0.00,
74363,X-ray bile duct dilation,0.00,
74400,Contrst x-ray urinary tract,97.69,
74410,Contrst x-ray urinary tract,97.69,
74415,Contrst x-ray urinary tract,123.64,
74420,Contrst x-ray urinary tract,45.78,
74425,Contrst x-ray urinary tract,0.00,
74430,Contrast x-ray bladder,24.87,
74440,X-ray male genital tract,67.05,
74445,X-ray exam of penis,0.00,
74450,X-ray urethra/bladder,0.00,
74455,X-ray urethra/bladder,75.70,
74470,X-ray exam of kidney lesion,0.00,
74485,X-ray guide gu dilation,67.41,
74710,X-ray measurement of pelvis,22.35,
74712,Mri fetal sngl/1st gestation,231.79,
74713,Mri fetal ea addl gestation,144.55,
74740,X-ray female genital tract,19.47,
74742,X-ray fallopian tube,31.36,
74775,X-ray exam of perineum,0.00,
75557,Cardiac mri for morph,118.95,
75559,Cardiac mri w/stress img,437.60,
75561,Cardiac mri for morph w/dye,317.21,
75563,Card mri w/stress img & dye,306.75,
75565,Card mri veloc flow mapping,92.06,
75571,Ct hrt w/o dye w/ca test,62.86,
75572,Ct hrt w/3d image,88.31,
75573,Ct hrt w/3d image congen,203.21,
75574,Ct angio hrt w/3d image,203.21,
75600,Contrast exam thoracic aorta,137.34,
75605,Contrast exam thoracic aorta,135.17,
75625,Contrast exam abdominl aorta,56.95,
75630,X-ray aorta leg arteries,79.66,
75635,Ct angio abdominal arteries,258.81,
75705,Artery x-rays spine,121.48,
75710,Artery x-rays arm/leg,88.31,
75716,Artery x-rays arms/legs,97.33,
75726,Artery x-rays abdomen,92.28,
75731,Artery x-rays adrenal gland,171.22,
75733,Artery x-rays adrenals,118.23,
75736,Artery x-rays pelvis,64.52,
75741,Artery x-rays lung,149.59,
75743,Artery x-rays lungs,86.15,
75746,Artery x-rays lung,82.55,
75756,Artery x-rays chest,115.71,
75774,Artery x-ray each vessel,67.05,
75801,Lymph vessel x-ray arm/leg,0.00,
75803,Lymph vessel x-ray arms/legs,0.00,
75805,Lymph vessel x-ray trunk,0.00,
75807,Lymph vessel x-ray trunk,41.45,
75809,Nonvascular shunt x-ray,72.45,
75810,Vein x-ray spleen/liver,0.00,
75820,Vein x-ray arm/leg,79.66,
75822,Vein x-ray arms/legs,81.10,
75825,Vein x-ray trunk,76.42,
75827,Vein x-ray chest,81.46,
75831,Vein x-ray kidney,83.27,
75833,Vein x-ray kidneys,90.48,
75840,Vein x-ray adrenal gland,89.76,
75842,Vein x-ray adrenal glands,103.09,
75860,Vein x-ray neck,87.95,
75870,Vein x-ray skull,127.24,
75872,Vein x-ray skull epidural,89.76,
75880,Vein x-ray eye socket,89.39,
75885,Vein x-ray liver w/hemodynam,86.87,
75887,Vein x-ray liver w/o hemodyn,86.87,
75889,Vein x-ray liver w/hemodynam,87.23,
75891,Vein x-ray liver,87.95,
75893,Venous sampling by catheter,93.36,
75894,X-rays transcath therapy,0.00,
75898,Follow-up angiography,0.00,
75901,Remove cva device obstruct,80.74,
75902,Remove cva lumen obstruct,61.64,
75956,Xray endovasc thor ao repr,0.00,
75957,Xray endovasc thor ao repr,0.00,
75958,Xray place prox ext thor ao,0.00,
75959,Xray place dist ext thor ao,0.00,
75970,Vascular biopsy,0.00,
75984,Xray control catheter change,69.57,
75989,Abscess drainage under x-ray,65.24,
76000,Fluoroscopy <1 hr phys/qhp,32.08,
76010,X-ray nose to rectum,19.83,
76080,X-ray exam of fistula,31.72,
76098,X-ray exam surgical specimen,8.65,
76100,X-ray exam of body section,63.80,
76101,Complex body section x-ray,96.24,
76102,Complex body section x-rays,67.41,
76120,Cine/video x-rays,88.67,
76125,Cine/video x-rays add-on,0.00,
76140,X-ray consultation,0.00,
76376,3d render w/intrp postproces,23.79,
76377,3d render w/intrp postproces,32.08,
76380,Cat scan follow-up study,62.86,
76390,Mr spectroscopy,381.73,
76496,Fluoroscopic procedure,0.00,
76497,Ct procedure,0.00,
76498,Mri procedure,0.00,
76499,Radiographic procedure,0.00,
76506,Echo exam of head,77.14,
76510,Ophth us b & quant a,59.48,
76511,Ophth us quant a only,36.77,
76512,Ophth us b w/non-quant a,35.69,
76513,Echo exam of eye water bath,63.80,
76514,Echo exam of eye thickness,8.29,
76516,Echo exam of eye,31.72,
76519,Echo exam of eye,35.69,
76529,Echo exam of eye,50.46,
76536,Us exam of head and neck,81.10,
76604,Us exam chest,58.40,
76641,Ultrasound breast complete,66.33,
76642,Ultrasound breast limited,50.83,
76700,Us exam abdom complete,76.78,
76705,Echo exam of abdomen,58.40,
76706,Us abdl aorta screen aaa,87.23,
76770,Us exam abdo back wall comp,71.37,
76775,Us exam abdo back wall lim,31.00,
76776,Us exam k transpl w/doppler,108.14,
76800,Us exam spinal canal,80.74,
76801,Ob us < 14 wks single fetus,66.69,
76802,Ob us < 14 wks addl fetus,42.90,
76805,Ob us >/= 14 wks sngl fetus,82.55,
76810,Ob us >/= 14 wks addl fetus,50.83,
76811,Ob us detailed sngl fetus,99.85,
76812,Ob us detailed addl fetus,117.51,
76813,Ob us nuchal meas 1 gest,62.00,
76814,Ob us nuchal meas add-on,51.91,
76815,Ob us limited fetus(s),47.58,
76816,Ob us follow-up per fetus,64.88,
76817,Transvaginal us obstetric,54.07,
76818,Fetal biophys profile w/nst,69.57,
76819,Fetal biophys profil w/o nst,51.19,
76820,Umbilical artery echo,25.95,
76821,Middle cerebral artery echo,52.63,
76825,Echo exam of fetal heart,178.43,
76826,Echo exam of fetal heart,114.63,
76827,Echo exam of fetal heart,42.17,
76828,Echo exam of fetal heart,28.84,
76830,Transvaginal us non-ob,81.46,
76831,Echo exam uterus,75.34,
76856,Us exam pelvic complete,70.29,
76857,Us exam pelvic limited,24.87,
76870,Us exam scrotum,68.85,
76872,Us transrectal,93.72,
76873,Echograp trans r pros study,86.51,
76881,Us compl joint r-t w/img,58.03,
76882,Us lmtd jt/nonvasc xtr strux,33.52,
76885,Us exam infant hips dynamic,62.86,
76886,Us exam infant hips static,62.86,
76930,Echo guide cardiocentesis,0.00,
76932,Echo guide for heart biopsy,0.00,
76936,Echo guide for artery repair,157.52,
76937,Us guide vascular access,20.19,
76940,Us guide tissue ablation,0.00,
76941,Echo guide for transfusion,0.00,
76942,Echo guide for biopsy,32.08,
76945,Echo guide villus sampling,0.00,
76946,Echo guide for amniocentesis,19.47,
76948,Echo guide ova aspiration,40.73,
76965,Echo guidance radiotherapy,67.77,
76970,Ultrasound exam follow-up,65.24,
76975,Gi endoscopic ultrasound,0.00,
76977,Us bone density measure,5.05,
76998,Us guide intraop,0.00,
76999,Echo examination procedure,0.00,
77001,Fluoroguide for vein device,73.89,
77002,Needle localization by xray,75.34,
77003,Fluoroguide for spine inject,68.49,
77011,Ct scan for localization,164.37,
77012,Ct scan for needle biopsy,79.66,
77013,Ct guide for tissue ablation,121.84,
77014,Ct scan for therapy guide,44.70,
77021,Mr guidance for needle place,410.21,
77022,Mri for tissue ablation,0.00,
77053,X-ray of mammary duct,40.37,
77054,X-ray of mammary ducts,53.71,
77061,Breast tomosynthesis uni,0.00,
77062,Breast tomosynthesis bi,0.00,
77063,Breast tomosynthesis bi,30.28,
77065,Dx mammo incl cad uni,94.08,
77066,Dx mammo incl cad bi,138.06,
77067,Scr mammo bi incl cad,99.49,
77071,X-ray stress view,52.99,
77072,X-rays for bone age,15.86,
77073,X-rays bone length studies,24.51,
77074,X-rays bone survey limited,46.86,
77075,X-rays bone survey complete,67.77,
77076,X-rays bone survey infant,67.41,
77077,Joint survey single view,23.79,
77078,Ct bone density axial,62.86,
77080,Dxa bone density axial,32.08,
77081,Dxa bone density/peripheral,24.15,
77084,Magnetic image bone marrow,231.79,
77085,Dxa bone density study,15.50,
77086,Fracture assessment via dxa,36.77,
77261,Radiation therapy planning,71.01,
77262,Radiation therapy planning,108.14,
77263,Radiation therapy planning,169.78,
77280,Set radiation therapy field,243.67,
77285,Set radiation therapy field,404.80,
77290,Set radiation therapy field,435.08,
77293,Respirator motion mgmt simul,361.18,
77295,3-d radiotherapy plan,269.27,
77299,Radiation therapy planning,0.00,
77300,Radiation therapy dose plan,34.24,
77301,Radiotherapy dose plan imrt,1533.05,
77306,Telethx isodose plan simple,77.86,
77307,Telethx isodose plan cplx,153.92,
77316,Brachytx isodose plan simple,131.57,
77317,Brachytx isodose intermed,172.66,
77318,Brachytx isodose complex,234.30,
77321,Special teletx port plan,50.10,
77331,Special radiation dosimetry,45.78,
77332,Radiation treatment aid(s),29.20,
77333,Radiation treatment aid(s),71.73,
77334,Radiation treatment aid(s),69.57,
77336,Radiation physics consult,80.74,
77338,Design mlc device for imrt,227.09,
77370,Radiation physics consult,273.95,
77371,Srs multisource,0.00,
77372,Srs linear based,1084.99,
77373,Sbrt delivery,1162.49,
77385,Ntsty modul rad tx dlvr smpl,0.00,
77386,Ntsty modul rad tx dlvr cplx,0.00,
77387,Guidance for radiaj tx dlvr,0.00,
77399,External radiation dosimetry,0.00,
77401,Radiation treatment delivery,24.51,
77402,Radiation treatment delivery,0.00,
77407,Radiation treatment delivery,0.00,
77412,Radiation treatment delivery,0.00,
77417,Radiology port images(s),11.17,
77423,Neutron beam tx complex,0.00,
77424,Io rad tx delivery by x-ray,0.00,
77425,Io rad tx deliver by elctrns,0.00,
77427,Radiation tx management x5,190.32,
77431,Radiation therapy management,105.62,
77432,Stereotactic radiation trmt,428.95,
77435,Sbrt management,647.03,
77469,Io radiation tx management,321.53,
77470,Special radiation treatment,107.06,
77499,Radiation therapy management,0.00,
77520,Proton trmt simple w/o comp,0.00,
77522,Proton trmt simple w/comp,0.00,
77523,Proton trmt intermediate,0.00,
77525,Proton treatment complex,451.30,
77600,Hyperthermia treatment,71.01,
77605,Hyperthermia treatment,688.48,
77610,Hyperthermia treatment,638.74,
77615,Hyperthermia treatment,985.51,
77620,Hyperthermia treatment,449.14,
77750,Infuse radioactive materials,264.94,
77761,Apply intrcav radiat simple,204.38,
77762,Apply intrcav radiat interm,304.95,
77763,Apply intrcav radiat compl,461.03,
77767,Hdr rdncl skn surf brachytx,177.71,
77768,Hdr rdncl skn surf brachytx,284.04,
77770,Hdr rdncl ntrstl/icav brchtx,228.89,
77771,Hdr rdncl ntrstl/icav brchtx,401.92,
77772,Hdr rdncl ntrstl/icav brchtx,630.09,
77778,Apply interstit radiat compl,463.92,
77789,Apply surf ldr radionuclide,123.64,
77790,Radiation handling,15.14,
77799,Radium/radioisotope therapy,0.00,
78012,Thyroid uptake measurement,76.06,
78013,Thyroid imaging w/blood flow,204.74,
78014,Thyroid imaging w/blood flow,186.00,
78015,Thyroid met imaging,201.50,
78016,Thyroid met imaging/studies,261.34,
78018,Thyroid met imaging body,288.01,
78020,Thyroid met uptake,59.12,
78070,Parathyroid planar imaging,274.31,
78071,Parathyrd planar w/wo subtrj,314.32,
78072,Parathyrd planar w/spect&ct,329.82,
78075,Adrenal cortex & medulla img,436.88,
78099,Endocrine nuclear procedure,0.00,
78102,Bone marrow imaging ltd,151.03,
78103,Bone marrow imaging mult,192.49,
78104,Bone marrow imaging body,220.96,
78110,Plasma volume single,64.16,
78111,Plasma volume multiple,67.05,
78120,Red cell mass single,64.16,
78121,Red cell mass multiple,67.05,
78122,Blood volume,77.50,
78130,Red cell survival study,103.81,
78135,Red cell survival kinetics,265.30,
78140,Red cell sequestration,87.95,
78185,Spleen imaging,160.41,
78191,Platelet survival,103.81,
78195,Lymph system imaging,314.68,
78199,Blood/lymph nuclear exam,0.00,
78201,Liver imaging,178.79,
78202,Liver imaging with flow,188.88,
78205,Liver imaging (3d),187.80,
78206,Liver image (3d) with flow,310.36,
78215,Liver and spleen imaging,180.23,
78216,Liver & spleen image/flow,105.98,
78226,Hepatobiliary system imaging,310.00,
78227,Hepatobil syst image w/drug,424.26,
78230,Salivary gland imaging,160.05,
78231,Serial salivary imaging,85.79,
78232,Salivary gland function exam,86.15,
78258,Esophageal motility study,193.57,
78261,Gastric mucosa imaging,183.48,
78262,Gastroesophageal reflux exam,219.88,
78264,Gastric emptying imag study,312.88,
78265,Gastric emptying imag study,354.63,
78266,Gastric emptying imag study,441.57,
78267,Breath tst attain/anal c-14,0.00,
78268,Breath test analysis c-14,0.00,
78270,Vit b-12 absorption exam,104.53,
78271,Vit b-12 absrp exam int fac,59.48,
78272,Vit b-12 absorp combined,63.80,
78278,Acute gi blood loss imaging,317.21,
78282,Gi protein loss exam,0.00,
78290,Meckels divert exam,313.60,
78291,Leveen/shunt patency exam,43.26,
78299,Gi nuclear procedure,0.00,
78300,Bone imaging limited area,210.51,
78305,Bone imaging multiple areas,252.32,
78306,Bone imaging whole body,274.31,
78315,Bone imaging 3 phase,312.88,
78320,Bone imaging (3d),188.52,
78350,Bone mineral single photon,23.43,
78351,Bone mineral dual photon,15.86,
78399,Musculoskeletal nuclear exam,0.00,
78414,Non-imaging heart function,0.00,
78428,Cardiac shunt imaging,153.20,
78445,Vascular flow imaging,170.14,
78451,Ht muscle image spect sing,286.21,
78452,Ht muscle image spect mult,413.09,
78453,Ht muscle image planar sing,269.27,
78454,Ht musc image planar mult,390.74,
78456,Acute venous thrombus image,272.51,
78457,Venous thrombosis imaging,162.93,
78458,Ven thrombosis images bilat,169.42,
78459,Heart muscle imaging (pet),0.00,
78466,Heart infarct image,178.79,
78468,Heart infarct image (ef),172.66,
78469,Heart infarct image (3d),194.29,
78472,Gated heart planar single,189.96,
78473,Gated heart multiple,229.61,
78481,Heart first pass single,134.09,
78483,Heart first pass multiple,174.46,
78491,Heart image (pet) single,0.00,
78492,Heart image (pet) multiple,0.00,
78494,Heart image spect,176.27,
78496,Heart first pass add-on,24.87,
78499,Cardiovascular nuclear exam,0.00,
78579,Lung ventilation imaging,171.22,
78580,Lung perfusion imaging,213.03,
78582,Lung ventilat&perfus imaging,298.10,
78597,Lung perfusion differential,174.82,
78598,Lung perf&ventilat diferentl,278.64,
78599,Respiratory nuclear exam,0.00,
78600,Brain image < 4 views,171.94,
78601,Brain image w/flow < 4 views,201.86,
78605,Brain image 4+ views,182.39,
78606,Brain image w/flow 4 + views,314.68,
78607,Brain imaging (3d),304.59,
78608,Brain imaging (pet),0.00,
78609,Brain imaging (pet),76.78,
78610,Brain flow imaging only,168.34,
78630,Cerebrospinal fluid scan,321.17,
78635,Csf ventriculography,324.78,
78645,Csf shunt evaluation,313.96,
78647,Cerebrospinal fluid scan,320.45,
78650,Csf leakage imaging,262.06,
78660,Nuclear exam of tear flow,164.37,
78699,Nervous system nuclear exam,0.00,
78700,Kidney imaging morphol,157.88,
78701,Kidney imaging with flow,205.10,
78707,K flow/funct image w/o drug,196.45,
78708,K flow/funct image w/drug,124.36,
78709,K flow/funct image multiple,316.13,
78710,Kidney imaging (3d),157.88,
78725,Kidney function study,95.16,
78730,Urinary bladder retention,79.30,
78740,Ureteral reflux study,199.70,
78761,Testicular imaging w/flow,185.64,
78799,Genitourinary nuclear exam,0.00,
78800,Tumor imaging limited area,170.14,
78801,Tumor imaging mult areas,230.70,
78802,Tumor imaging whole body,296.66,
78803,Tumor imaging (3d),305.31,
78804,Tumor imaging whole body,543.94,
78805,Abscess imaging ltd area,156.08,
78806,Abscess imaging whole body,307.11,
78807,Nuclear localization/abscess,305.31,
78808,Iv inj ra drug dx study,41.09,
78811,Pet image ltd area,0.00,
78812,Pet image skull-thigh,0.00,
78813,Pet image full body,0.00,
78814,Pet image w/ct lmtd,0.00,
78815,Pet image w/ct skull-thigh,0.00,
78816,Pet image w/ct full body,0.00,
78999,Nuclear diagnostic exam,0.00,
79005,Nuclear rx oral admin,90.12,
79101,Nuclear rx iv admin,99.13,
79200,Nuclear rx intracav admin,84.71,
79300,Nuclr rx interstit colloid,0.00,
79403,Hematopoietic nuclear tx,112.10,
79440,Nuclear rx intra-articular,84.71,
79445,Nuclear rx intra-arterial,0.00,
79999,Nuclear medicine therapy,0.00,